{
    "href": "https://api.spotify.com/v1/me/tracks?offset=0&limit=2&market=DE",
    "items": [
        {
            "added_at": "2023-12-28T18:24:46Z",
            "track": {
                "album": {
                    "album_type": "album",
                    "artists": [
                        {
                            "external_urls": {
                                "spotify": "https://open.spotify.com/artist/2iLpvtffIrQ4bMYrFPRN4x"
                            },
                            "href": "https://api.spotify.com/v1/artists/2iLpvtffIrQ4bMYrFPRN4x",
                            "id": "2iLpvtffIrQ4bMYrFPRN4x",
                            "name": "Deuce",
                            "type": "artist",
                            "uri": "spotify:artist:2iLpvtffIrQ4bMYrFPRN4x"
                        }
                    ],
                    "external_urls": {
                        "spotify": "https://open.spotify.com/album/7CI6R1kJLUMfBl4FOKP8nc"
                    },
                    "href": "https://api.spotify.com/v1/albums/7CI6R1kJLUMfBl4FOKP8nc",
                    "id": "7CI6R1kJLUMfBl4FOKP8nc",
                    "images": [
                        {
                            "height": 640,
                            "url": "https://i.scdn.co/image/ab67616d0000b273e03fe77a070990450b42a921",
                            "width": 640
                        },
                        {
                            "height": 300,
                            "url": "https://i.scdn.co/image/ab67616d00001e02e03fe77a070990450b42a921",
                            "width": 300
                        },
                        {
                            "height": 64,
                            "url": "https://i.scdn.co/image/ab67616d00004851e03fe77a070990450b42a921",
                            "width": 64
                        }
                    ],
                    "is_playable": true,
                    "name": "Invincible",
                    "release_date": "2017-12-01",
                    "release_date_precision": "day",
                    "total_tracks": 14,
                    "type": "album",
                    "uri": "spotify:album:7CI6R1kJLUMfBl4FOKP8nc"
                },
                "artists": [
                    {
                        "external_urls": {
                            "spotify": "https://open.spotify.com/artist/2iLpvtffIrQ4bMYrFPRN4x"
                        },
                        "href": "https://api.spotify.com/v1/artists/2iLpvtffIrQ4bMYrFPRN4x",
                        "id": "2iLpvtffIrQ4bMYrFPRN4x",
                        "name": "Deuce",
                        "type": "artist",
                        "uri": "spotify:artist:2iLpvtffIrQ4bMYrFPRN4x"
                    }
                ],
                "disc_number": 1,
                "duration_ms": 184346,
                "explicit": true,
                "external_ids": {
                    "isrc": "USDPK1700182"
                },
                "external_urls": {
                    "spotify": "https://open.spotify.com/track/6zrR8itT7IfAdl5aS7YQyt"
                },
                "href": "https://api.spotify.com/v1/tracks/6zrR8itT7IfAdl5aS7YQyt",
                "id": "6zrR8itT7IfAdl5aS7YQyt",
                "is_local": false,
                "is_playable": true,
                "name": "Here I Come",
                "popularity": 41,
                "preview_url": "https://p.scdn.co/mp3-preview/a0c90ef2f11728f1c8dd0d753fd1ca20bfea7ed4?cid=2bd2843a69284b91a196b2018118831d",
                "track_number": 1,
                "type": "track",
                "uri": "spotify:track:6zrR8itT7IfAdl5aS7YQyt"
            }
        },
        {
            "added_at": "2023-12-19T17:37:15Z",
            "track": {
                "album": {
                    "album_type": "single",
                    "artists": [
                        {
                            "external_urls": {
                                "spotify": "https://open.spotify.com/artist/6O7MpKrY91vlCd4Osi6XKs"
                            },
                            "href": "https://api.spotify.com/v1/artists/6O7MpKrY91vlCd4Osi6XKs",
                            "id": "6O7MpKrY91vlCd4Osi6XKs",
                            "name": "Black Veil Brides",
                            "type": "artist",
                            "uri": "spotify:artist:6O7MpKrY91vlCd4Osi6XKs"
                        }
                    ],
                    "external_urls": {
                        "spotify": "https://open.spotify.com/album/6ehXKNVHjv2GYuhhy7ecwG"
                    },
                    "href": "https://api.spotify.com/v1/albums/6ehXKNVHjv2GYuhhy7ecwG",
                    "id": "6ehXKNVHjv2GYuhhy7ecwG",
                    "images": [
                        {
                            "height": 640,
                            "url": "https://i.scdn.co/image/ab67616d0000b273b32d10b54b26a8c0f96d0667",
                            "width": 640
                        },
                        {
                            "height": 300,
                            "url": "https://i.scdn.co/image/ab67616d00001e02b32d10b54b26a8c0f96d0667",
                            "width": 300
                        },
                        {
                            "height": 64,
                            "url": "https://i.scdn.co/image/ab67616d00004851b32d10b54b26a8c0f96d0667",
                            "width": 64
                        }
                    ],
                    "is_playable": true,
                    "name": "Saviour II",
                    "release_date": "2022-09-06",
                    "release_date_precision": "day",
                    "total_tracks": 1,
                    "type": "album",
                    "uri": "spotify:album:6ehXKNVHjv2GYuhhy7ecwG"
                },
                "artists": [
                    {
                        "external_urls": {
                            "spotify": "https://open.spotify.com/artist/6O7MpKrY91vlCd4Osi6XKs"
                        },
                        "href": "https://api.spotify.com/v1/artists/6O7MpKrY91vlCd4Osi6XKs",
                        "id": "6O7MpKrY91vlCd4Osi6XKs",
                        "name": "Black Veil Brides",
                        "type": "artist",
                        "uri": "spotify:artist:6O7MpKrY91vlCd4Osi6XKs"
                    }
                ],
                "disc_number": 1,
                "duration_ms": 200489,
                "explicit": false,
                "external_ids": {
                    "isrc": "USYFZ2288801"
                },
                "external_urls": {
                    "spotify": "https://open.spotify.com/track/14FP9BNWHekbC17tqcppOR"
                },
                "href": "https://api.spotify.com/v1/tracks/14FP9BNWHekbC17tqcppOR",
                "id": "14FP9BNWHekbC17tqcppOR",
                "is_local": false,
                "is_playable": true,
                "name": "Saviour II",
                "popularity": 58,
                "preview_url": "https://p.scdn.co/mp3-preview/e54a16a6acf1253453a11d0dc6f4323a32a0e68d?cid=2bd2843a69284b91a196b2018118831d",
                "track_number": 1,
                "type": "track",
                "uri": "spotify:track:14FP9BNWHekbC17tqcppOR"
            }
        }
    ],
    "limit": 2,
    "next": "https://api.spotify.com/v1/me/tracks?offset=2&limit=2&market=DE",
    "offset": 0,
    "previous": null,
    "total": 80
}